{
	"extends": "nx/presets/npm.json",
	"tasksRunnerOptions": {
		"default": {
			"runner": "nx/tasks-runners/default",
			"options": {
				"cacheableOperations": [
					"build",
					"lint"
				]
			}
		}
	},
	"targetDependencies": {
		"build": [
			{
				"target": "build",
				"projects": "dependencies"
			}
		]
	}
}